module gitlab.com/ericnsmith/systray-hddled

go 1.22

require github.com/energye/systray v1.0.2

require (
	github.com/godbus/dbus/v5 v5.0.4 // indirect
	github.com/tevino/abool v0.0.0-20220530134649-2bfc934cb23c // indirect
	golang.org/x/sys v0.0.0-20200515095857-1151b9dac4a9 // indirect
)
